…
## Rows: 178
## Columns: 7
## Groups: Country [178]
## $ Country                    <chr> "Afghanistan", "Albania", "Algeria", "Am...
## $ Region                     <chr> "South Asia", "Europe & Central Asia", "...
## $ Infant_Mortality_Rate      <dbl> 118.465957, 30.692308, 59.244681, NaN, 4...
## $ Fertility_Rate             <dbl> 7.011851, 2.821511, 4.574447, NaN, 1.226...
## $ National_Income_per_Capita <dbl> 293.5946, 1807.8806, 1937.2568, NaN, NaN...
## $ `Literacy (%)`             <dbl> 36.0, 86.5, 70.0, 97.0, 100.0, 42.0, 89....
## $ Agriculture                <dbl> 0.380, 0.232, 0.101, NA, NA, 0.096, 0.03...

MFI_tidy %>% anti_join(Country_join, by="Country")

## # A tibble: 39 x 5
## # Groups:   Country [39]
##    Country      Region       Infant_Mortality~ Fertility_Rate National_Income_p~
##    <chr>        <chr>                    <dbl>          <dbl>              <dbl>
##  1 Bosnia and ~ Europe & Ce~             11.1            1.80              2735.
##  2 British Vir~ Latin Ameri~            NaN            NaN                  NaN 
##  3 Brunei Daru~ East Asia &~              9.76           3.15             18607.
##  4 Cabo Verde   Sub-Saharan~             48.4            4.73              1334.
##  5 Central Afr~ Sub-Saharan~            113.             5.63               319.
##  6 Channel Isl~ Europe & Ce~            NaN              1.50               NaN 
##  7 Congo, Rep.  Sub-Saharan~             63.3            5.48               395.
##  8 Curacao      Latin Ameri~            NaN              2.05               NaN 
##  9 Egypt, Arab~ Middle East~             70.0            4.36              1012.
## 10 Hong Kong S~ East Asia &~            NaN              1.59              5330.
## # ... with 29 more rows

country_lit %>% anti_join(Country_join, by="Country")

## # A tibble: 49 x 3
##    Country              `Literacy (%)` Agriculture
##    <chr>                         <dbl>       <dbl>
##  1 Anguilla                       95         0.04 
##  2 Bosnia & Herzegovina           NA         0.142
##  3 British Virgin Is.             97.8       0.018
##  4 Brunei                         93.9       0.036
##  5 Burma                          85.3       0.564
##  6 Cape Verde                     76.6       0.121
##  7 Central African Rep.           51         0.55 
##  8 Congo, Repub. of the           83.8       0.062
##  9 Cook Islands                   95         0.151
## 10 East Timor                     58.6       0.085
## # ... with 39 more rows
…
